{
  "frame_time" : 20,
  "gpus": [
    {
      "name" : "i915",
      "device_path" : "/dev/dri/card0",
      "id" : 0,
	"desktop_type" : "shared",
	"banner_height" : 25,
      "displays" : [
        {
          "name" : "eDP1",
          "key" : 12,
          "x" : 0,
          "y" : 0,
          "uuid" : "none",
          "preferred_mode_index" : 0,
          "modes" : [
            { "width" : 1920,
              "height" : 1080
            },
            {
              "width" : 640,
              "height" : 480
            },
            {
              "width" : 800,
              "height" : 600
            }
          ]
        },
        {
          "name" : "DisplayPort2",
          "key" : 16,
          "x" : 1920,
          "y" : 0,
          "uuid" : "none",
          "preferred_mode_index" : 1,
          "modes" : [
            { "width" : 3840,
              "height" : 2160
            },
            {
              "width" : 1920,
              "height" : 1080
            },
            {
              "width" : 800,
              "height" : 600
            }
          ]
        }
      ]
    }
  ]
}
